tb/tb_top.vcd
$date
	Mon Jul  6 15:23:32 2026
$end
$version
	Icarus Verilog
$end
$timescale
	1s
$end
$scope module tb_top $end
$var reg 1 ! clk $end
$var reg 1 " reset $end
$scope module uut $end
$var wire 1 ! clk $end
$var wire 1 " reset $end
$var wire 32 # wb_result [31:0] $end
$var wire 1 $ wb_reg_write $end
$var wire 5 % wb_rd [4:0] $end
$var wire 1 & stall $end
$var wire 32 ' pc_next [31:0] $end
$var wire 32 ( mem_result [31:0] $end
$var wire 1 ) mem_reg_write $end
$var wire 32 * mem_rd_data2 [31:0] $end
$var wire 5 + mem_rd [4:0] $end
$var wire 1 , mem_mem_write $end
$var wire 1 - mem_mem_to_reg $end
$var wire 32 . mem_alu_result [31:0] $end
$var wire 32 / if_pc_plus4 [31:0] $end
$var wire 32 0 if_pc [31:0] $end
$var wire 32 1 if_instr [31:0] $end
$var wire 5 2 id_rs2 [4:0] $end
$var wire 5 3 id_rs1 [4:0] $end
$var wire 1 4 id_reg_write $end
$var wire 32 5 id_rd_data2 [31:0] $end
$var wire 32 6 id_rd_data1 [31:0] $end
$var wire 5 7 id_rd [4:0] $end
$var wire 32 8 id_pc_plus4 [31:0] $end
$var wire 32 9 id_pc [31:0] $end
$var wire 1 : id_mem_write $end
$var wire 1 ; id_mem_to_reg $end
$var wire 32 < id_instr [31:0] $end
$var wire 32 = id_imm [31:0] $end
$var wire 1 > id_branch $end
$var wire 1 ? id_alu_src $end
$var wire 4 @ id_alu_ctrl [3:0] $end
$var wire 2 A fwd_b [1:0] $end
$var wire 2 B fwd_a [1:0] $end
$var wire 1 C ex_zero $end
$var wire 5 D ex_rs2 [4:0] $end
$var wire 5 E ex_rs1 [4:0] $end
$var wire 1 F ex_reg_write $end
$var wire 32 G ex_rd_data2_out [31:0] $end
$var wire 32 H ex_rd_data2 [31:0] $end
$var wire 32 I ex_rd_data1 [31:0] $end
$var wire 5 J ex_rd [4:0] $end
$var wire 32 K ex_pc_plus4 [31:0] $end
$var wire 32 L ex_pc [31:0] $end
$var wire 1 M ex_mem_write $end
$var wire 1 N ex_mem_to_reg $end
$var wire 32 O ex_imm [31:0] $end
$var wire 32 P ex_branch_target [31:0] $end
$var wire 1 Q ex_branch_taken $end
$var wire 1 R ex_branch $end
$var wire 1 S ex_alu_src $end
$var wire 32 T ex_alu_result [31:0] $end
$var wire 4 U ex_alu_ctrl [3:0] $end
$scope module ex_inst $end
$var wire 1 Q branch_taken $end
$var wire 32 V rd_data2_out [31:0] $end
$var wire 1 C zero $end
$var wire 32 W rd_data2 [31:0] $end
$var wire 32 X rd_data1 [31:0] $end
$var wire 32 Y pc [31:0] $end
$var wire 32 Z mem_wb_result [31:0] $end
$var wire 32 [ imm [31:0] $end
$var wire 32 \ fwd_b_data [31:0] $end
$var wire 2 ] fwd_b [1:0] $end
$var wire 2 ^ fwd_a [1:0] $end
$var wire 32 _ ex_mem_result [31:0] $end
$var wire 32 ` branch_target [31:0] $end
$var wire 1 R branch $end
$var wire 1 S alu_src $end
$var wire 32 a alu_result [31:0] $end
$var wire 4 b alu_ctrl [3:0] $end
$var wire 32 c alu_b [31:0] $end
$var wire 32 d alu_a [31:0] $end
$scope module alu_inst $end
$var wire 32 e a [31:0] $end
$var wire 32 f b [31:0] $end
$var wire 1 C zero $end
$var wire 4 g alu_ctrl [3:0] $end
$var reg 32 h result [31:0] $end
$upscope $end
$upscope $end
$scope module ex_mem_inst $end
$var wire 1 ! clk $end
$var wire 32 i ex_alu_result [31:0] $end
$var wire 32 j ex_rd_data2 [31:0] $end
$var wire 1 " reset $end
$var wire 1 F ex_reg_write $end
$var wire 5 k ex_rd [4:0] $end
$var wire 1 M ex_mem_write $end
$var wire 1 N ex_mem_to_reg $end
$var reg 32 l mem_alu_result [31:0] $end
$var reg 1 - mem_mem_to_reg $end
$var reg 1 , mem_mem_write $end
$var reg 5 m mem_rd [4:0] $end
$var reg 32 n mem_rd_data2 [31:0] $end
$var reg 1 ) mem_reg_write $end
$upscope $end
$scope module fwd_inst $end
$var wire 5 o mem_rd [4:0] $end
$var wire 1 ) mem_reg_write $end
$var wire 1 $ wb_reg_write $end
$var wire 5 p wb_rd [4:0] $end
$var wire 5 q ex_rs2 [4:0] $end
$var wire 5 r ex_rs1 [4:0] $end
$var reg 2 s fwd_a [1:0] $end
$var reg 2 t fwd_b [1:0] $end
$upscope $end
$scope module haz_inst $end
$var wire 5 u id_rs2 [4:0] $end
$var wire 5 v id_rs1 [4:0] $end
$var wire 5 w ex_rd [4:0] $end
$var wire 1 N ex_mem_to_reg $end
$var reg 1 & stall $end
$upscope $end
$scope module id_ex_inst $end
$var wire 1 ! clk $end
$var wire 1 Q flush $end
$var wire 1 " reset $end
$var wire 5 x id_rs2 [4:0] $end
$var wire 5 y id_rs1 [4:0] $end
$var wire 1 4 id_reg_write $end
$var wire 32 z id_rd_data2 [31:0] $end
$var wire 32 { id_rd_data1 [31:0] $end
$var wire 5 | id_rd [4:0] $end
$var wire 32 } id_pc_plus4 [31:0] $end
$var wire 32 ~ id_pc [31:0] $end
$var wire 1 : id_mem_write $end
$var wire 1 ; id_mem_to_reg $end
$var wire 32 !" id_imm [31:0] $end
$var wire 1 > id_branch $end
$var wire 1 ? id_alu_src $end
$var wire 4 "" id_alu_ctrl [3:0] $end
$var reg 4 #" ex_alu_ctrl [3:0] $end
$var reg 1 S ex_alu_src $end
$var reg 1 R ex_branch $end
$var reg 32 $" ex_imm [31:0] $end
$var reg 1 N ex_mem_to_reg $end
$var reg 1 M ex_mem_write $end
$var reg 32 %" ex_pc [31:0] $end
$var reg 32 &" ex_pc_plus4 [31:0] $end
$var reg 5 '" ex_rd [4:0] $end
$var reg 32 (" ex_rd_data1 [31:0] $end
$var reg 32 )" ex_rd_data2 [31:0] $end
$var reg 1 F ex_reg_write $end
$var reg 5 *" ex_rs1 [4:0] $end
$var reg 5 +" ex_rs2 [4:0] $end
$upscope $end
$scope module id_inst $end
$var wire 1 ! clk $end
$var wire 32 ," wr_data [31:0] $end
$var wire 5 -" wr_addr [4:0] $end
$var wire 1 $ we $end
$var wire 5 ." rs2 [4:0] $end
$var wire 5 /" rs1 [4:0] $end
$var wire 1 4 reg_write $end
$var wire 32 0" rd_data2 [31:0] $end
$var wire 32 1" rd_data1 [31:0] $end
$var wire 5 2" rd [4:0] $end
$var wire 32 3" pc_plus4 [31:0] $end
$var wire 32 4" pc [31:0] $end
$var wire 1 : mem_write $end
$var wire 1 ; mem_to_reg $end
$var wire 32 5" instr [31:0] $end
$var wire 32 6" imm [31:0] $end
$var wire 1 > branch $end
$var wire 1 ? alu_src $end
$var wire 4 7" alu_ctrl [3:0] $end
$scope module dec_inst $end
$var wire 1 ? alu_src $end
$var wire 1 4 reg_write $end
$var wire 5 8" rs2 [4:0] $end
$var wire 5 9" rs1 [4:0] $end
$var wire 5 :" rd [4:0] $end
$var wire 7 ;" opcode [6:0] $end
$var wire 1 : mem_write $end
$var wire 1 ; mem_to_reg $end
$var wire 32 <" instr [31:0] $end
$var wire 32 =" imm [31:0] $end
$var wire 1 >" funct7_5 $end
$var wire 3 ?" funct3 [2:0] $end
$var wire 1 > branch $end
$var wire 4 @" alu_ctrl [3:0] $end
$upscope $end
$scope module rf_inst $end
$var wire 1 ! clk $end
$var wire 5 A" rd_addr1 [4:0] $end
$var wire 5 B" rd_addr2 [4:0] $end
$var wire 32 C" wr_data [31:0] $end
$var wire 5 D" wr_addr [4:0] $end
$var wire 1 $ we $end
$var wire 32 E" rd_data2 [31:0] $end
$var wire 32 F" rd_data1 [31:0] $end
$upscope $end
$upscope $end
$scope module if_id_inst $end
$var wire 1 ! clk $end
$var wire 1 Q flush $end
$var wire 1 " reset $end
$var wire 32 G" if_pc_plus4 [31:0] $end
$var wire 32 H" if_pc [31:0] $end
$var wire 32 I" if_instr [31:0] $end
$var reg 32 J" id_instr [31:0] $end
$var reg 32 K" id_pc [31:0] $end
$var reg 32 L" id_pc_plus4 [31:0] $end
$upscope $end
$scope module if_inst $end
$var wire 1 ! clk $end
$var wire 32 M" pc [31:0] $end
$var wire 32 N" pc_next [31:0] $end
$var wire 1 " reset $end
$var wire 32 O" pc_plus4 [31:0] $end
$var wire 32 P" instr [31:0] $end
$var reg 32 Q" pc_reg [31:0] $end
$scope module imem_inst $end
$var wire 32 R" addr [31:0] $end
$var wire 32 S" instr [31:0] $end
$upscope $end
$upscope $end
$scope module mem_inst $end
$var wire 32 T" alu_result [31:0] $end
$var wire 1 ! clk $end
$var wire 1 - mem_to_reg $end
$var wire 1 , mem_write $end
$var wire 32 U" rd_data2 [31:0] $end
$var wire 32 V" result [31:0] $end
$var wire 32 W" read_data [31:0] $end
$scope module dmem_inst $end
$var wire 32 X" addr [31:0] $end
$var wire 1 ! clk $end
$var wire 32 Y" rd_data [31:0] $end
$var wire 1 , we $end
$var wire 32 Z" wr_data [31:0] $end
$upscope $end
$upscope $end
$scope module mem_wb_inst $end
$var wire 1 ! clk $end
$var wire 5 [" mem_rd [4:0] $end
$var wire 1 ) mem_reg_write $end
$var wire 32 \" mem_result [31:0] $end
$var wire 1 " reset $end
$var reg 5 ]" wb_rd [4:0] $end
$var reg 1 $ wb_reg_write $end
$var reg 32 ^" wb_result [31:0] $end
$upscope $end
$upscope $end
$upscope $end
$enddefinitions $end
$comment Show the parameter values. $end
$dumpall
$end
#0
$dumpvars
bx ^"
bx ]"
bx \"
bx ["
bx Z"
bx Y"
bx X"
bx W"
bx V"
bx U"
bx T"
b101000000000000010010011 S"
b0 R"
b0 Q"
b101000000000000010010011 P"
b100 O"
bx N"
b0 M"
bx L"
bx K"
bx J"
b101000000000000010010011 I"
b0 H"
b100 G"
bx F"
bx E"
bx D"
bx C"
bx B"
bx A"
b0xxx @"
bx ?"
x>"
bx ="
bx <"
bx ;"
bx :"
bx 9"
bx 8"
b0xxx 7"
bx 6"
bx 5"
bx 4"
bx 3"
bx 2"
bx 1"
bx 0"
bx /"
bx ."
bx -"
bx ,"
bx +"
bx *"
bx )"
bx ("
bx '"
bx &"
bx %"
bx $"
bx #"
b0xxx ""
bx !"
bx ~
bx }
bx |
bx {
bx z
bx y
bx x
bx w
bx v
bx u
bx t
bx s
bx r
bx q
bx p
bx o
bx n
bx m
bx l
bx k
bx j
bx i
bx h
bx g
bx f
bx e
bx d
bx c
bx b
bx a
bx `
bx _
bx ^
bx ]
bx \
bx [
bx Z
bx Y
bx X
bx W
bx V
bx U
bx T
xS
xR
xQ
bx P
bx O
xN
xM
bx L
bx K
bx J
bx I
bx H
bx G
xF
bx E
bx D
xC
bx B
bx A
b0xxx @
x?
x>
bx =
bx <
x;
x:
bx 9
bx 8
bx 7
bx 6
bx 5
x4
bx 3
bx 2
b101000000000000010010011 1
b0 0
b100 /
bx .
x-
x,
bx +
bx *
x)
bx (
bx '
x&
bx %
x$
bx #
1"
0!
$end
#5
1C
b0 T
b0 a
b0 h
b0 i
b0 @
b0 ""
b0 7"
b0 @"
04
0?
b0 =
b0 !"
b0 6"
b0 ="
b0 5
b0 z
b0 0"
b0 E"
b0 6
b0 {
b0 1"
b0 F"
b100 '
b100 N"
b0 P
b0 `
0>"
b0 ?"
0:
0;
0>
b0 ;"
b0 2
b0 u
b0 x
b0 ."
b0 8"
b0 B"
b0 3
b0 v
b0 y
b0 /"
b0 9"
b0 A"
b0 7
b0 |
b0 2"
b0 :"
0Q
0&
b0 c
b0 f
b0 (
b0 V"
b0 \"
b0 G
b0 V
b0 j
b0 \
b0 d
b0 e
b0 A
b0 ]
b0 t
b0 B
b0 ^
b0 s
b0 8
b0 }
b0 3"
b0 L"
b0 <
b0 5"
b0 <"
b0 J"
b0 9
b0 ~
b0 4"
b0 K"
0R
0N
0M
0S
0F
b0 U
b0 b
b0 g
b0 #"
b0 J
b0 k
b0 w
b0 '"
b0 D
b0 q
b0 +"
b0 E
b0 r
b0 *"
b0 O
b0 [
b0 $"
b0 H
b0 W
b0 )"
b0 I
b0 X
b0 ("
b0 K
b0 &"
b0 L
b0 Y
b0 %"
0-
0,
0)
b0 +
b0 m
b0 o
b0 ["
b0 *
b0 n
b0 U"
b0 Z"
b0 .
b0 _
b0 l
b0 T"
b0 X"
0$
b0 %
b0 p
b0 -"
b0 D"
b0 ]"
b0 #
b0 Z
b0 ,"
b0 C"
b0 ^"
1!
#10
0!
#15
1!
#20
0!
0"
#25
14
1?
b1010000000000000100010011 1
b1010000000000000100010011 I"
b1010000000000000100010011 P"
b1010000000000000100010011 S"
b1010 =
b1010 !"
b1010 6"
b1010 ="
bx 5
bx z
bx 0"
bx E"
b1000 '
b1000 N"
b10011 ;"
b1010 2
b1010 u
b1010 x
b1010 ."
b1010 8"
b1010 B"
b1 7
b1 |
b1 2"
b1 :"
b1000 /
b1000 G"
b1000 O"
b100 0
b100 H"
b100 M"
b100 Q"
b100 R"
b100 8
b100 }
b100 3"
b100 L"
b101000000000000010010011 <
b101000000000000010010011 5"
b101000000000000010010011 <"
b101000000000000010010011 J"
1!
#30
0!
#35
0C
b1010 T
b1010 a
b1010 h
b1010 i
b10100 P
b10100 `
bx G
bx V
bx j
bx \
b10100 =
b10100 !"
b10100 6"
b10100 ="
b1000001000000110110011 1
b1000001000000110110011 I"
b1000001000000110110011 P"
b1000001000000110110011 S"
b1010 c
b1010 f
b10100 2
b10100 u
b10100 x
b10100 ."
b10100 8"
b10100 B"
b10 7
b10 |
b10 2"
b10 :"
b1100 '
b1100 N"
1S
1F
b1 J
b1 k
b1 w
b1 '"
b1010 D
b1010 q
b1010 +"
b1010 O
b1010 [
b1010 $"
bx H
bx W
bx )"
b100 K
b100 &"
b1000 8
b1000 }
b1000 3"
b1000 L"
b1010000000000000100010011 <
b1010000000000000100010011 5"
b1010000000000000100010011 <"
b1010000000000000100010011 J"
b100 9
b100 ~
b100 4"
b100 K"
b1100 /
b1100 G"
b1100 O"
b1000 0
b1000 H"
b1000 M"
b1000 Q"
b1000 R"
1!
#40
0!
#45
b10100 T
b10100 a
b10100 h
b10100 i
0?
b100011000001000110011 1
b100011000001000110011 I"
b100011000001000110011 P"
b100011000001000110011 S"
b10 =
b10 !"
b10 6"
b10 ="
bx 6
bx {
bx 1"
bx F"
b10000 '
b10000 N"
b110011 ;"
b10 2
b10 u
b10 x
b10 ."
b10 8"
b10 B"
b1 3
b1 v
b1 y
b1 /"
b1 9"
b1 A"
b11 7
b11 |
b11 2"
b11 :"
b10100 c
b10100 f
b1010 (
b1010 V"
b1010 \"
b10000 /
b10000 G"
b10000 O"
b1100 0
b1100 H"
b1100 M"
b1100 Q"
b1100 R"
b1100 8
b1100 }
b1100 3"
b1100 L"
b1000001000000110110011 <
b1000001000000110110011 5"
b1000001000000110110011 <"
b1000001000000110110011 J"
b1000 9
b1000 ~
b1000 4"
b1000 K"
b10 J
b10 k
b10 w
b10 '"
b10100 D
b10100 q
b10100 +"
b10100 O
b10100 [
b10100 $"
b1000 K
b1000 &"
b101100 P
b101100 `
b100 L
b100 Y
b100 %"
1)
b1 +
b1 m
b1 o
b1 ["
bx *
bx n
bx U"
bx Z"
b1010 .
b1010 _
b1010 l
b1010 T"
b1010 X"
1!
#50
0!
#55
0C
b11110 T
b11110 a
b11110 h
b11110 i
b10100 G
b10100 V
b10100 j
b10100 \
b1010 d
b1010 e
b1 =
b1 !"
b1 6"
b1 ="
b1100100000001010110011 1
b1100100000001010110011 I"
b1100100000001010110011 P"
b1100100000001010110011 S"
b10100 (
b10100 V"
b10100 \"
b10 A
b10 ]
b10 t
b1 B
b1 ^
b1 s
b10100 c
b10100 f
b1 2
b1 u
b1 x
b1 ."
b1 8"
b1 B"
b11 3
b11 v
b11 y
b11 /"
b11 9"
b11 A"
b100 7
b100 |
b100 2"
b100 :"
b10100 '
b10100 N"
1$
b1 %
b1 p
b1 -"
b1 D"
b1 ]"
b1010 #
b1010 Z
b1010 ,"
b1010 C"
b1010 ^"
b10 +
b10 m
b10 o
b10 ["
b10100 .
b10100 _
b10100 l
b10100 T"
b10100 X"
0S
b11 J
b11 k
b11 w
b11 '"
b10 D
b10 q
b10 +"
b1 E
b1 r
b1 *"
b10 O
b10 [
b10 $"
bx I
bx X
bx ("
b1100 K
b1100 &"
b1100 P
b1100 `
b1000 L
b1000 Y
b1000 %"
b10000 8
b10000 }
b10000 3"
b10000 L"
b100011000001000110011 <
b100011000001000110011 5"
b100011000001000110011 <"
b100011000001000110011 J"
b1100 9
b1100 ~
b1100 4"
b1100 K"
b10100 /
b10100 G"
b10100 O"
b10000 0
b10000 H"
b10000 M"
b10000 Q"
b10000 R"
1!
#60
0!
#65
xC
bx T
bx a
bx h
bx i
b0 1
b0 I"
b0 P"
b0 S"
b11 =
b11 !"
b11 6"
b11 ="
bx c
bx f
b11110 d
b11110 e
b11000 '
b11000 N"
b11 2
b11 u
b11 x
b11 ."
b11 8"
b11 B"
b100 3
b100 v
b100 y
b100 /"
b100 9"
b100 A"
b101 7
b101 |
b101 2"
b101 :"
bx 5
bx z
bx 0"
bx E"
b11110 (
b11110 V"
b11110 \"
bx G
bx V
bx j
bx \
b0 A
b0 ]
b0 t
b10 B
b10 ^
b10 s
b11000 /
b11000 G"
b11000 O"
b10100 0
b10100 H"
b10100 M"
b10100 Q"
b10100 R"
b10100 8
b10100 }
b10100 3"
b10100 L"
b1100100000001010110011 <
b1100100000001010110011 5"
b1100100000001010110011 <"
b1100100000001010110011 J"
b10000 9
b10000 ~
b10000 4"
b10000 K"
b100 J
b100 k
b100 w
b100 '"
b1 D
b1 q
b1 +"
b11 E
b11 r
b11 *"
b1 O
b1 [
b1 $"
b10000 K
b10000 &"
b1110 P
b1110 `
b1100 L
b1100 Y
b1100 %"
b11 +
b11 m
b11 o
b11 ["
b10100 *
b10100 n
b10100 U"
b10100 Z"
b11110 .
b11110 _
b11110 l
b11110 T"
b11110 X"
b10 %
b10 p
b10 -"
b10 D"
b10 ]"
b10100 #
b10100 Z
b10100 ,"
b10100 C"
b10100 ^"
1!
#70
0!
#75
b11110 c
b11110 f
b11110 G
b11110 V
b11110 j
b11110 \
04
b0 =
b0 !"
b0 6"
b0 ="
b0 5
b0 z
b0 0"
b0 E"
b0 6
b0 {
b0 1"
b0 F"
bx (
bx V"
bx \"
bx d
bx e
b1 A
b1 ]
b1 t
b0 ;"
b0 2
b0 u
b0 x
b0 ."
b0 8"
b0 B"
b0 3
b0 v
b0 y
b0 /"
b0 9"
b0 A"
b0 7
b0 |
b0 2"
b0 :"
b11100 '
b11100 N"
b11 %
b11 p
b11 -"
b11 D"
b11 ]"
b11110 #
b11110 Z
b11110 ,"
b11110 C"
b11110 ^"
b100 +
b100 m
b100 o
b100 ["
bx *
bx n
bx U"
bx Z"
bx .
bx _
bx l
bx T"
bx X"
b101 J
b101 k
b101 w
b101 '"
b11 D
b11 q
b11 +"
b100 E
b100 r
b100 *"
b11 O
b11 [
b11 $"
b10100 K
b10100 &"
b10110 P
b10110 `
b10000 L
b10000 Y
b10000 %"
b11000 8
b11000 }
b11000 3"
b11000 L"
b0 <
b0 5"
b0 <"
b0 J"
b10100 9
b10100 ~
b10100 4"
b10100 K"
b11100 /
b11100 G"
b11100 O"
b11000 0
b11000 H"
b11000 M"
b11000 Q"
b11000 R"
1!
#80
0!
#85
1C
b0 T
b0 a
b0 h
b0 i
b0 c
b0 f
b0 d
b0 e
b0 G
b0 V
b0 j
b0 \
b100000 '
b100000 N"
b0 A
b0 ]
b0 t
b0 B
b0 ^
b0 s
b100000 /
b100000 G"
b100000 O"
b11100 0
b11100 H"
b11100 M"
b11100 Q"
b11100 R"
b11100 8
b11100 }
b11100 3"
b11100 L"
b11000 9
b11000 ~
b11000 4"
b11000 K"
0F
b0 J
b0 k
b0 w
b0 '"
b0 D
b0 q
b0 +"
b0 E
b0 r
b0 *"
b0 O
b0 [
b0 $"
b0 H
b0 W
b0 )"
b0 I
b0 X
b0 ("
b11000 K
b11000 &"
b10100 P
b10100 `
b10100 L
b10100 Y
b10100 %"
b101 +
b101 m
b101 o
b101 ["
b11110 *
b11110 n
b11110 U"
b11110 Z"
b100 %
b100 p
b100 -"
b100 D"
b100 ]"
bx #
bx Z
bx ,"
bx C"
bx ^"
1!
#90
0!
#95
b0 (
b0 V"
b0 \"
b100100 '
b100100 N"
b101 %
b101 p
b101 -"
b101 D"
b101 ]"
0)
b0 +
b0 m
b0 o
b0 ["
b0 *
b0 n
b0 U"
b0 Z"
b0 .
b0 _
b0 l
b0 T"
b0 X"
b11100 K
b11100 &"
b11000 P
b11000 `
b11000 L
b11000 Y
b11000 %"
b100000 8
b100000 }
b100000 3"
b100000 L"
b11100 9
b11100 ~
b11100 4"
b11100 K"
b100100 /
b100100 G"
b100100 O"
b100000 0
b100000 H"
b100000 M"
b100000 Q"
b100000 R"
1!
#100
0!
#105
b101000 '
b101000 N"
b101000 /
b101000 G"
b101000 O"
b100100 0
b100100 H"
b100100 M"
b100100 Q"
b100100 R"
b100100 8
b100100 }
b100100 3"
b100100 L"
b100000 9
b100000 ~
b100000 4"
b100000 K"
b100000 K
b100000 &"
b11100 P
b11100 `
b11100 L
b11100 Y
b11100 %"
0$
b0 %
b0 p
b0 -"
b0 D"
b0 ]"
b0 #
b0 Z
b0 ,"
b0 C"
b0 ^"
1!
#110
0!
#115
b101100 '
b101100 N"
b100100 K
b100100 &"
b100000 P
b100000 `
b100000 L
b100000 Y
b100000 %"
b101000 8
b101000 }
b101000 3"
b101000 L"
b100100 9
b100100 ~
b100100 4"
b100100 K"
b101100 /
b101100 G"
b101100 O"
b101000 0
b101000 H"
b101000 M"
b101000 Q"
b101000 R"
1!
#120
0!
#125
b110000 '
b110000 N"
b110000 /
b110000 G"
b110000 O"
b101100 0
b101100 H"
b101100 M"
b101100 Q"
b101100 R"
b101100 8
b101100 }
b101100 3"
b101100 L"
b101000 9
b101000 ~
b101000 4"
b101000 K"
b101000 K
b101000 &"
b100100 P
b100100 `
b100100 L
b100100 Y
b100100 %"
1!
#130
0!
#135
b110100 '
b110100 N"
b101100 K
b101100 &"
b101000 P
b101000 `
b101000 L
b101000 Y
b101000 %"
b110000 8
b110000 }
b110000 3"
b110000 L"
b101100 9
b101100 ~
b101100 4"
b101100 K"
b110100 /
b110100 G"
b110100 O"
b110000 0
b110000 H"
b110000 M"
b110000 Q"
b110000 R"
1!
#140
0!
#145
b111000 '
b111000 N"
b111000 /
b111000 G"
b111000 O"
b110100 0
b110100 H"
b110100 M"
b110100 Q"
b110100 R"
b110100 8
b110100 }
b110100 3"
b110100 L"
b110000 9
b110000 ~
b110000 4"
b110000 K"
b110000 K
b110000 &"
b101100 P
b101100 `
b101100 L
b101100 Y
b101100 %"
1!
#150
0!
#155
b111100 '
b111100 N"
b110100 K
b110100 &"
b110000 P
b110000 `
b110000 L
b110000 Y
b110000 %"
b111000 8
b111000 }
b111000 3"
b111000 L"
b110100 9
b110100 ~
b110100 4"
b110100 K"
b111100 /
b111100 G"
b111100 O"
b111000 0
b111000 H"
b111000 M"
b111000 Q"
b111000 R"
1!
#160
0!
#165
b1000000 '
b1000000 N"
b1000000 /
b1000000 G"
b1000000 O"
b111100 0
b111100 H"
b111100 M"
b111100 Q"
b111100 R"
b111100 8
b111100 }
b111100 3"
b111100 L"
b111000 9
b111000 ~
b111000 4"
b111000 K"
b111000 K
b111000 &"
b110100 P
b110100 `
b110100 L
b110100 Y
b110100 %"
1!
#170
0!
#175
b101000000000000010010011 1
b101000000000000010010011 I"
b101000000000000010010011 P"
b101000000000000010010011 S"
b1000100 '
b1000100 N"
b111100 K
b111100 &"
b111000 P
b111000 `
b111000 L
b111000 Y
b111000 %"
b1000000 8
b1000000 }
b1000000 3"
b1000000 L"
b111100 9
b111100 ~
b111100 4"
b111100 K"
b1000100 /
b1000100 G"
b1000100 O"
b1000000 0
b1000000 H"
b1000000 M"
b1000000 Q"
b1000000 R"
1!
#180
0!
#185
14
1?
b1010000000000000100010011 1
b1010000000000000100010011 I"
b1010000000000000100010011 P"
b1010000000000000100010011 S"
b1010 =
b1010 !"
b1010 6"
b1010 ="
bx 5
bx z
bx 0"
bx E"
b1001000 '
b1001000 N"
b10011 ;"
b1010 2
b1010 u
b1010 x
b1010 ."
b1010 8"
b1010 B"
b1 7
b1 |
b1 2"
b1 :"
b1001000 /
b1001000 G"
b1001000 O"
b1000100 0
b1000100 H"
b1000100 M"
b1000100 Q"
b1000100 R"
b1000100 8
b1000100 }
b1000100 3"
b1000100 L"
b101000000000000010010011 <
b101000000000000010010011 5"
b101000000000000010010011 <"
b101000000000000010010011 J"
b1000000 9
b1000000 ~
b1000000 4"
b1000000 K"
b1000000 K
b1000000 &"
b111100 P
b111100 `
b111100 L
b111100 Y
b111100 %"
1!
#190
0!
#195
0C
b1010 T
b1010 a
b1010 h
b1010 i
bx G
bx V
bx j
bx \
b10100 =
b10100 !"
b10100 6"
b10100 ="
b1000001000000110110011 1
b1000001000000110110011 I"
b1000001000000110110011 P"
b1000001000000110110011 S"
b1010 c
b1010 f
b10100 2
b10100 u
b10100 x
b10100 ."
b10100 8"
b10100 B"
b10 7
b10 |
b10 2"
b10 :"
b1001100 '
b1001100 N"
1S
1F
b1 J
b1 k
b1 w
b1 '"
b1010 D
b1010 q
b1010 +"
b1010 O
b1010 [
b1010 $"
bx H
bx W
bx )"
b1000100 K
b1000100 &"
b1010100 P
b1010100 `
b1000000 L
b1000000 Y
b1000000 %"
b1001000 8
b1001000 }
b1001000 3"
b1001000 L"
b1010000000000000100010011 <
b1010000000000000100010011 5"
b1010000000000000100010011 <"
b1010000000000000100010011 J"
b1000100 9
b1000100 ~
b1000100 4"
b1000100 K"
b1001100 /
b1001100 G"
b1001100 O"
b1001000 0
b1001000 H"
b1001000 M"
b1001000 Q"
b1001000 R"
1!
#200
0!
#205
b10100 T
b10100 a
b10100 h
b10100 i
0?
b10100 5
b10100 z
b10100 0"
b10100 E"
b100011000001000110011 1
b100011000001000110011 I"
b100011000001000110011 P"
b100011000001000110011 S"
b10 =
b10 !"
b10 6"
b10 ="
b1010 6
b1010 {
b1010 1"
b1010 F"
b1010000 '
b1010000 N"
b110011 ;"
b10 2
b10 u
b10 x
b10 ."
b10 8"
b10 B"
b1 3
b1 v
b1 y
b1 /"
b1 9"
b1 A"
b11 7
b11 |
b11 2"
b11 :"
b10100 c
b10100 f
b1010 (
b1010 V"
b1010 \"
b1010000 /
b1010000 G"
b1010000 O"
b1001100 0
b1001100 H"
b1001100 M"
b1001100 Q"
b1001100 R"
b1001100 8
b1001100 }
b1001100 3"
b1001100 L"
b1000001000000110110011 <
b1000001000000110110011 5"
b1000001000000110110011 <"
b1000001000000110110011 J"
b1001000 9
b1001000 ~
b1001000 4"
b1001000 K"
b10 J
b10 k
b10 w
b10 '"
b10100 D
b10100 q
b10100 +"
b10100 O
b10100 [
b10100 $"
b1001000 K
b1001000 &"
b1101100 P
b1101100 `
b1000100 L
b1000100 Y
b1000100 %"
1)
b1 +
b1 m
b1 o
b1 ["
bx *
bx n
bx U"
bx Z"
b1010 .
b1010 _
b1010 l
b1010 T"
b1010 X"
1!
#210
0!
#215
0C
b11110 T
b11110 a
b11110 h
b11110 i
b1010 5
b1010 z
b1010 0"
b1010 E"
b11110 6
b11110 {
b11110 1"
b11110 F"
b10100 G
b10100 V
b10100 j
b10100 \
b1010 d
b1010 e
b1 =
b1 !"
b1 6"
b1 ="
b1100100000001010110011 1
b1100100000001010110011 I"
b1100100000001010110011 P"
b1100100000001010110011 S"
b10100 (
b10100 V"
b10100 \"
b10 A
b10 ]
b10 t
b1 B
b1 ^
b1 s
b10100 c
b10100 f
b1 2
b1 u
b1 x
b1 ."
b1 8"
b1 B"
b11 3
b11 v
b11 y
b11 /"
b11 9"
b11 A"
b100 7
b100 |
b100 2"
b100 :"
b1010100 '
b1010100 N"
1$
b1 %
b1 p
b1 -"
b1 D"
b1 ]"
b1010 #
b1010 Z
b1010 ,"
b1010 C"
b1010 ^"
b10 +
b10 m
b10 o
b10 ["
b10100 .
b10100 _
b10100 l
b10100 T"
b10100 X"
0S
b11 J
b11 k
b11 w
b11 '"
b10 D
b10 q
b10 +"
b1 E
b1 r
b1 *"
b10 O
b10 [
b10 $"
b10100 H
b10100 W
b10100 )"
b1010 I
b1010 X
b1010 ("
b1001100 K
b1001100 &"
b1001100 P
b1001100 `
b1001000 L
b1001000 Y
b1001000 %"
b1010000 8
b1010000 }
b1010000 3"
b1010000 L"
b100011000001000110011 <
b100011000001000110011 5"
b100011000001000110011 <"
b100011000001000110011 J"
b1001100 9
b1001100 ~
b1001100 4"
b1001100 K"
b1010100 /
b1010100 G"
b1010100 O"
b1010000 0
b1010000 H"
b1010000 M"
b1010000 Q"
b1010000 R"
1!
#220
0!
